Introduction to infx • rOpenSci: infx
…
dat <- fetch_files(token, cell_ds[[1L]],
                   file_regex = "Image\\.Count_",
                   reader = read_mat_files)

names(dat) <- sapply(dat, attr, "feature")
dat <- lapply(dat, as.integer)

tibble::as_tibble(lapply(dat, unlist))
#> # A tibble: 3,456 x 4
#>    Count_PeriNuclei Count_Nuclei Count_ExpandedNuclei Count_Cells
#>               <int>        <int>                <int>       <int>
#>  1              330          330                  330         330
#>  2              299          299                  299         299
#>  3              278          278                  278         278
#>  4              266          266                  266         266
#>  5              215          215                  215         215
#>  6              150          150                  150         150
#>  7              348          348                  348         348
#>  8              184          184                  184         184
#>  9              147          147                  147         147
#> 10              405          405                  405         405
#> # … with 3,446 more rows
…
names(dat) <- paste0("Area_", sapply(dat, attr, "object"))
well_names <- paste0(rep(LETTERS[1L:16L], each = 24L), rep(1L:24L, 16L))
well_names <- rep(rep(well_names, each = 9L), sapply(dat[[1L]], length))

dat <- lapply(dat, unlist)

tibble::as_tibble(c(list(Well = well_names), lapply(dat, as.integer)))
#> # A tibble: 548,116 x 4
#>    Well  Area_PeriNuclei Area_Nuclei Area_Cells
#>    <chr>           <int>       <int>      <int>
#>  1 A1                696         763       1670
#>  2 A1                539         765       1652
#>  3 A1                650         819       2558
#>  4 A1                364         413       2289
#>  5 A1                494         731       2120
#>  6 A1                646         832       3015
#>  7 A1                564         469       2310
#>  8 A1                701         774       2055
#>  9 A1               1278        1924       3855
#> 10 A1                597         701       1806
#> # … with 548,106 more rows
…
